{
  "groups": [
    {
      "name": "application.jwt",
      "type": "onlinestore.project.jwt.JwtConfig",
      "sourceType": "onlinestore.project.jwt.JwtConfig"
    }
  ],
  "properties": [
    {
      "name": "application.jwt.secret-key",
      "type": "java.lang.String",
      "sourceType": "onlinestore.project.jwt.JwtConfig"
    },
    {
      "name": "application.jwt.token-expiration-after-days",
      "type": "java.lang.Integer",
      "sourceType": "onlinestore.project.jwt.JwtConfig"
    },
    {
      "name": "application.jwt.token-prefix",
      "type": "java.lang.String",
      "sourceType": "onlinestore.project.jwt.JwtConfig"
    }
  ],
  "hints": []
}